^O:\PRIVAT\MLAB\MLAB_XVCD\MLAB_XVCD\LIB_WIN32\FTD2XX.LIB|O:\PRIVAT\MLAB\MLAB_XVCD\MLAB_XVCD\RELEASE\MLAB_XVCD.OBJ|O:\PRIVAT\MLAB\MLAB_XVCD\MLAB_XVCD\RELEASE\MLAB_XVCD_PORT_FTDI.OBJ
O:\PRIVAT\MLAB\MLAB_XVCD\RELEASE\MLAB_XVCD.EXE
O:\PRIVAT\MLAB\MLAB_XVCD\RELEASE\MLAB_XVCD.PDB
